%YAML 1.1
%TAG !u! tag:unity3d.com,2011:
--- !u!21 &2100000
Material:
  serializedVersion: 6
  m_ObjectHideFlags: 0
  m_CorrespondingSourceObject: {fileID: 0}
  m_PrefabInternal: {fileID: 0}
  m_Name: Ground 8 Illuminated Diffuse
  m_Shader: {fileID: 10, guid: 0000000000000000f000000000000000, type: 0}
  m_ShaderKeywords: 
  m_LightmapFlags: 4
  m_EnableInstancingVariants: 0
  m_DoubleSidedGI: 0
  m_CustomRenderQueue: -1
  stringTagMap: {}
  disabledShaderPasses: []
  m_SavedProperties:
    serializedVersion: 3
    m_TexEnvs:
    - _Illum:
        m_Texture: {fileID: 2800000, guid: 9382a317ba3a2c0419fbbb5d18e36dc7, type: 3}
        m_Scale: {x: 4, y: 4}
        m_Offset: {x: 0, y: 0}
    - _MainTex:
        m_Texture: {fileID: 2800000, guid: 9382a317ba3a2c0419fbbb5d18e36dc7, type: 3}
        m_Scale: {x: 4, y: 4}
        m_Offset: {x: 0, y: 0}
    m_Floats:
    - _EmissionLM: 0
    m_Colors:
    - _Color: {r: 1, g: 1, b: 1, a: 1}
